{
  "layer": "top",
  "position": "top",
  "mod": "dock",
  "exclusive": true,
  "passthrough": false,
  "gtk-layer-shell": true,
  "height": 10,
  // "spacing": 0,
  "modules-left": ["hyprland/workspaces", "hyprland/window",  "custom/media", "mpd"],
  // "modules-center": ["hyprland/window"],
  "modules-center": ["clock", "tray"],
  "modules-right": [
    //"idle_inhitbitor",
    "custom/weather",
    "wireplumber",
    "backlight",
    "keyboard-state",
    "hyprland/language",
    "bluetooth",
    "network",
    "cpu",
    "memory",
    "temperature",
    "battery",
  ],

  "hyprland/workspaces": {
    "disable-scroll": true,
    "all-outputs": true,
    "on-click": "activate",
    "format": "{icon}",
    "format-icons": {
      "1": "1",
      "2": "2",
      "3": "3",
      "4": "4",
      "5": "5",
      "6": "6",
      "7": "7",
      "8": "8",
      "9": "9",
      "10": "10",
    }
  },

  "hyprland/window":{

  },

  "custom/media": {
    "format": "{icon} {}",
    "return-type": "json",
    "max-length": 45,
    "format-icons": {
      "spotify": "",
      "default": "🎜"
    },
    "escape": true,
    "exec": "$HOME/.config/waybar/mediaplayer.py 2> /dev/null", // Script in resources folder
    // "exec": "$HOME/.config/waybar/mediaplayer.py --player spotify 2> /dev/null" // Filter player based on name
  },
  "custom/spotify": {
    "exec-if": "pgrep spotify",
    "exec": "/usr/bin/python3 ~/.config/waybar/scripts/mediaplayer.py --player spotify",
    "format": " {}",
    "return-type": "json",
    "on-click": "playerctl play-pause",
    "escape": true,
    "max-length": 40,
    "on-click": "playerctl -p spotify play-pause",
    "on-click-right": "killall spotify",
    "smooth-scrolling-threshold": 10, // This value was tested using a trackpad, it should be lowered if using a mouse.
    "on-scroll-up": "playerctl -p spotify next",
    "on-scroll-down": "playerctl -p spotify previous",
  },
  "mpd":{
    /*
    "format": "playing: {filename}",
    "server": "127.0.0.1",
    "port": 6601,
    */
    
    "format-disabled": "", // an empty format will hide the module
    "format": "{stateIcon} {consumeIcon}{randomIcon}{repeatIcon}{singleIcon}{artist} - {album} - {title} ({elapsedTime:%M:%S}/{totalTime:%M:%S}) ⸨{songPosition}|{queueLength}⸩ {volume}% ",
    "format-disconnected": "Disconnected ",
    "format-stopped": "{consumeIcon}{randomIcon}{repeatIcon}{singleIcon}Stopped ",
    "unknown-tag": "N/A",
    "interval": 15,
    "consume-icons": {
        "on": " ",
    },
    "random-icons": {
        "off": "<span color=\"#f53c3c\"></span> ",
        "on": " ",
    },
    "repeat-icons": {
        "on": " ",
    },
    "single-icons": {
        "on": "1 ",
    },
    "state-icons": {
        "paused": "",
        "playing": "",
    },
    "tooltip-format": "MPD (connected)",
    "tooltip-format-disconnected": "MPD (disconnected)",

  },

  "clock": {
    "interval": 1,
    "format": "{: %H:%M:%S   %m/%d}",
    "tooltip-format": "<big>{:%Y %B}</big>\n<tt><small>{calendar}</small></tt>",
  },
  
  "tray": {
    "icon-size": 5,
    "spacing": 0,
  },

  "custom/weather": {
    // shows the current weather and forecast
    "tooltip": true,
    "format": "{}F",
    "interval": 600,
    "exec": "$HOME/.config/waybar/waybar-wttr.py",
    "return-type": "json",
  },

  "wireplumber": {
    "format": "{icon} {volume}",
    "tooltip": false,
    "format-muted": " Muted",
    "on-click": "pamixer -t",
    "on-click-right": "pavucontrol",
    "on-scroll-up": "pamixer -i 5",
    "on-scroll-down": "pamixer -d 5",
    "scroll-step": 5,
    "format-icons": {
    "headphone": "",
    "hands-free": "",
    "headset": "",
    "phone": "",
    "portable": "",
    "car": "",
    "default": ["", "", ""],
    }
  },
  "pulseaudio": {
    "format": "{icon} {volume}",
    "tooltip": false,
    "format-muted": " Muted",
    "on-click": "pamixer -t",
    "on-click-right": "pavucontrol",
    "on-scroll-up": "pamixer -i 5",
    "on-scroll-down": "pamixer -d 5",
    "scroll-step": 5,
    "format-icons": {
      "headphone": "",
      "hands-free": "",
      "headset": "",
      "phone": "",
      "portable": "",
      "car": "",
      "default": ["", "", ""],
    }
  },
  "pulseaudio#microphone": {
    "format": "{format_source}",
    "format-source": " {volume}%",
    "format-source-muted": " Muted",
    "on-click": "pamixer --default-source -t",
    "on-scroll-up": "pamixer --default-source -i 5",
    "on-scroll-down": "pamixer --default-source -d 5",
    "scroll-step": 5,
  },

  "backlight": {
    "device": "intel_backlight",
    "format": "{icon} {percent}",
    "format-icons": ["󰃞", "󰃟", "󰃠"],
    //"on-click": "~/.config/waybar/scripts/cycleWall.sh",
    //"on-click-right": "~/.config/rofi/bin/selectBG",
    "on-scroll-up": "brightnessctl set 1%+",
    "on-scroll-down": "brightnessctl set 1%-",
    "min-length": 3,
  },

  "keyboard-state": {
    "capslock": true,
    "format": "{name} {icon} ",
    "format-icons": {
        "locked": "",
        "unlocked": "",
    }
  },

  "hyprland/language": {

  },

  "bluetooth": {
    "format": " {status}",
    "format-disabled": "", // an empty format will hide the module
    "format-connected": " {num_connections}",
    "tooltip-format": "{device_alias}",
    "tooltip-format-connected": " {device_enumerate}",
    "tooltip-format-enumerate-connected": "{device_alias}",
    "on-click-right": "blueman-manager",
  },

  "network": {
    // "interface": "wlp2*", // (Optional) To force the use of this interface
    "format-wifi": "  {signalStrength}%",
    "format-ethernet": "{ipaddr}/{cidr} ",
    "tooltip-format": "{essid} - {ifname} via {gwaddr} ",
    "format-linked": "{ifname} (No IP) ",
    "format-disconnected": "Disconnected ⚠",
    "format-alt": "{ifname}:{essid} {ipaddr}/{cidr}",
    // "on-click-right": "~/.config/rofi/bin/network",
  },

  "cpu": {
    "interval": 15,
    "format": " {usage}% ",
    "max-length": 10,
    "tooltip": true,
    "tooltip-format": "CPU - {used:0.1f}",
    "on-click": "foot --title htop sh -c 'htop'",
  
  },

  "memory": {
    "interval": 30,
    "format": " {}%",
    "max-length": 10,
    "tooltip": true,
    "tooltip-format": "Memory - {used:0.1f}GB used",
    "on-click": "foot --title btop sh -c 'btop'",
  },

  "temperature": {
    /*
    "thermal-zone": 1,
    "format": " {temperatureC}°C",
    "critical-threshold": 80,
    "format-critical": "{temperatureF}°F "
    */
    "interval": 30,
    "thermal-zone": 2,
    "hwmon-path": "/sys/class/hwmon/hwmon4/temp1_input",
    "critical-threshold": 60,
    "format-critical": "{temperatureC}°C {icon}",
    "format": "{temperatureC}°C {icon} ",
    "format-icons": ["", "", ""],

    "tooltip": true,
    "tooltip-format": "temperature - {used:0.1f} used",
    "on-click": "foot --title nvtop sh -c 'nvtop'",
  
  },

  "battery": {
    "states": {
      "good": 80,
      "warning": 30,
      "critical": 20,
    },
    "format": "{icon} {capacity}%",
    "format-charging": " {capacity}%",
    "format-plugged": " {capacity}%",
    "format-alt": "{time} {icon}",
    "format-icons": ["󰂎", "󰁺", "󰁻", "󰁼", "󰁽", "󰁾", "󰁿", "󰂀", "󰂁", "󰂂", "󱈑"],
  },


  "idle_inhibitor": {
    "format": "{icon}",
    "format-icons": {
        "activated": "",
        "deactivated": "",
    }
  },
}
